brand,pfcampaign,campaign_duration,campaign_start,brand_text,pfcampaign_text,campaign_goal,campaign_analysis_month,prior_analysis_month,
always demi,discreet,12,3,Always Demi,Discreet,awareness,11,10,7
bounty,mach7,12,1,Bounty,Mach 7,awareness no att,11,10,
clearblue,weeksestimator,12,1,ClearBlue,Weeks estimator,awareness,11,10,
covergirl,instaglam,5,2,Covergirl,Instaglam,awareness,,,
crest,regimen,12,1,Crest,Regimen,purchase,11,10,
crest,whitestrips,12,1,Crest,Whitestrips,purchase,11,10,
crest oral b,powertoothbrush,10,3,Crest Oral B,Power toothbrush,purchase,11,10,
febreze,wygs,12,1,Febreze,WYGS,awareness,11,10,
metamucil,wellness,10,3,Metamucil,Wellness,awareness,11,10,
olay,body,12,1,Olay,Body,awareness,11,10,
olay,regeneristluminous,11,2,Olay,Regenerist-luminous,consideration,11,10,
pantene,alwayson,11,2,Pantene,Alwayson,consideration,11,10,
swiffer,franchise,12,1,Swiffer,Franchise,awareness,,,6
swiffer,wetjet,6,1,Swiffer,Wetjet,awareness,,,
tide,shizen,6,1,Tide,Shizen,awareness,,,
tide,variant,6,1,Tide,Variant,awareness,,,
gain,ambrosia,1,7,Gain,Ambrosia,awareness,,,
pantene,quantum,6,7,Pantene,Quantum,consideration,11,10,
secret,evita,6,7,Secret,Evita,consideration,11,10,
swiffer,megabrand,6,7,Swiffer,MegaBrand,consideration,11,10,
head and shoulders,andros,6,7,Head & Shoulders,Andros,awareness,11,10,
ssm,ssm,12,1,,,awareness,11,,
