months_to_end,norm_eff,reco,reduce
11,0,none,0
11,0.2,low,-0.1
11,0.3,medium,-0.2
11,0.4,high,-0.25
10,0,none,0
10,0.2,low,-0.1
10,0.3,medium,-0.2
10,0.4,high,-0.25
9,0,none,0
9,0.2,low,-0.1
9,0.3,medium,-0.2
9,0.4,high,-0.25
8,0,none,0
8,0.2,low,-0.1
8,0.3,medium,-0.2
8,0.4,high,-0.25
7,0,none,0
7,0.2,low,-0.15
7,0.3,medium,-0.25
7,0.4,high,-0.3
6,0,none,0
6,0.2,low,-0.15
6,0.3,medium,-0.25
6,0.4,high,-0.3
5,0,none,0
5,0.2,low,-0.2
5,0.3,medium,-0.3
5,0.4,high,-0.35
4,0,none,0
4,0.2,low,-0.2
4,0.3,medium,-0.3
4,0.4,high,-0.35
3,0,none,0
3,0.2,low,-0.25
3,0.3,medium,-0.35
3,0.4,high,-0.4
2,0,none,0
2,0.2,low,-0.25
2,0.3,medium,-0.35
2,0.4,high,-0.4
1,0,none,0
1,0.2,low,-0.3
1,0.3,medium,-0.4
1,0.4,high,-0.45
