targeting,targeting_text
bhv,Behavioral
con,Contextual
condem,Contextual Demographic
dem,Demographic
pbt,Purchase Based Targeting
demo,Demographic
pbtdemo,Purchase Based Demographic
pbtbhv,Purchase Based Behavioral
bhvdem,Behavioral Demographic
day,Daypart
bhvcon,Behavioral Contextual
conbhv,Comtextual Behavioral
