brand	pfcampaign	channel	campaign_name	buy_id	dlx_campaign_name	date_dropped	date_added	status_notes
Always	Discreet	eComm	PG1_YZ_124153_GMDemiEcomm_US_15_W55P_YZ_3	8758818	AlwaysDiscreet		2015-06-29	
Always	Discreet	iMedia	PG1_YZ_124154_GMDemiIMedia_US_15_W55P_YZ_1	8767377	AlwaysDiscreet		2015-06-29	
Bounty	Mach7	eComm	PG1_BN_123965_GMECOMBountyeCommFH_US_15_A2554_BNZ8_3	8691142	BountyMach		2015-08-07	
Bounty	Mach7	iMedia	PG1_BN_125360_GMIMEBNGMiMediaA18+FHFY1516_US_15_A18P_BNZ_1	8787173	BountyMach		2015-06-29	
Bounty	Mach7	OLV	PG1_BN_125362_GMOLVBNGMOLVA18+FHFY1516_US_15_BNZ_1	8834696	BountyMach		2015-06-29	
Bounty	Mach7	OLV	pg1_bn_126469_GMOLVBNGMTrueViewSpecBuyFY1516_US_15_W1834_bnz8_1	8852042	BountyMach		2015-08-07	
Bounty	Mach7	iMedia			BountyMach			Not yet bought in
Bounty	Mach7	OLV	PG1_BN_125086_BNGMTrueViewSpecBuy_US_15_W2554_BNZ_1		BountyMach			
Bounty	Mach7				BountyMach			
Bounty	Mach7USH	OLV USH	PG1_BN_125361_USHOLVBNUSHOLVHA1849FHFY1516_US_16_BNZ_HA1849_1	8834769	BountyMach		2015-06-29	
Bounty	Mach7USH	OLV USH	pg1_bn_126247_BNUSHTrueViewSpecBuyFY1516_US_15_W2554_bnze_1	8838437	BountyMach		2015-06-29	
Bounty	Mach7USH	OLV USH			BountyMach			Not yet bought in
Charmin	CharminMega	eComm	PG1_CN_123966_GMECOMCharmineCommGMUSH_US_15_W2554_CNQG_3	8685965	CharminMega		2015-06-29	
Charmin	CharminMega	OLV	PG1_CN_125134_TMOLVCNUltraStrongOnlineVideoTW1849FY1516FH_US_15_TW1849_CNJ_1	8787030	CharminMega		2015-06-29	
Charmin	CharminMega	iMedia	PG1_CN_125109_CNUltraSoftiMediaW25-54FY1516FH_US_1516_WM2554_CNK_1	8787379	CharminMega		2015-06-29	
Charmin	CharminMega	iMedia	PG1_CN_125084_CNNonUseriMediaW25-54FY1516FH_US_15/16_WM2554_CNQF_1 	8799155	CharminMega		2015-06-29	
Charmin	CharminMega	OLV	PG1_CN_125115_CNNonUserOnlineVideoTW18-49FY1516FH_US_15/16_WM1825_CNQF_1 	8799232	CharminMega		2015-06-29	
Charmin	CharminMega	OLV	PG1_CN_125130_CNUltraSoftOnlineVideoW25-54FY1516_US_15/16_WM2554_CNK_1	8799240	CharminMega		2015-06-29	
Charmin	CharminMega	iMedia	PG1_CN_125671_GMIMEUltraStongiMediaW25541516FH_US_15_W2554_CNJ_1	8806755	CharminMega		2015-06-29	
Charmin	CharminMega	iMedia			CharminMega			Launches in AMJ
Charmin	CharminMega	iMedia			CharminMega			Launches in JFM
Charmin	CharminMega	iMedia			CharminMega			Launches in AMJ
Charmin	CharminMega	iMedia			CharminMega			Launches in JFM
Charmin	CharminMega	iMedia			CharminMega			Launches in AMJ
Charmin	CharminMega	iMedia			CharminMega			Launches in JFM
Charmin	CharminMega	Mobile			CharminMega			Mobile
Charmin	CharminMega	OLV			CharminMega			Launches in AMJ
Charmin	CharminMega	OLV			CharminMega			likely 8/1 launch will provide once created
Charmin	CharminMega	OLV			CharminMega			Launches in JFM
Charmin	CharminMega	OLV			CharminMega			Launches in AMJ
Charmin	CharminMega	OLV			CharminMega			Launches in JFM
Charmin	CharminMega	OLV			CharminMega			Launches in AMJ
Charmin	CharminMega	OLV			CharminMega			Launches in JFM
Charmin	CharminMega				CharminMega			Launches in September
Charmin	CharminMegaUSH	iMedia USH	PG1_CN_125180_CNNonUserUSHiMediaHW25-54FY1516FH_US_15_HW2554_CNQF_1 	8783754	CharminMega		2015-06-29	
Charmin	CharminMegaUSH	iMedia USH	PG1_CN_125176_CNUltraStrongUSHiMediaHW25-54FY1516FH_US_15_HW2554_CNJ_1	8787283	CharminMega		2015-06-29	
Charmin	CharminMegaUSH	iMedia USH	PG1_CN_125177_CNUltraSoftUSHiMediaHW25-54FY1516FH_US_15_HW2554_CNK_1	8787284	CharminMega		2015-06-29	
Charmin	CharminMegaUSH	OLV USH	PG1_CN_125174_CNUltraStrongUSHOLVHW25-54FY1516_US_15_HW2554_CNJ_1 	8795623	CharminMega		2015-06-29	
Charmin	CharminMegaUSH	iMedia USH			CharminMega			Launches in January
Charmin	CharminMegaUSH	iMedia USH			CharminMega			Launches in January
Charmin	CharminMegaUSH	iMedia USH			CharminMega			Launches in AMJ
Charmin	CharminMegaUSH	iMedia USH			CharminMega			Launches in JFM
Charmin	CharminMegaUSH	OLV USH			CharminMega			Launches in January
Clearblue	WeeksEstimator	iMedia	pg1_cy_124850_GMIMEUSCYGMRTPregiMedia_US_15_W1834_cy2_2	8766968			2015-07-06	
Clearblue	WeeksEstimator	iMedia	pg1_cy_124852_TMIMEUSCYTMPAwareiMedia_US_15_W1834_cy2_1	8768347			2015-07-06	
Clearblue	WeeksEstimator	OLV	pg1_cy_126440_TMOLVUSCYTMPTacticalOLV_US_15_W1834_cy2_1	8847406			2015-07-06	
Clearblue	WeeksEstimatorUSH	iMedia USH	PG1_CY_124893_UHIMEUSCYUSHRTPREGIMEDIA_US_15_W1834_CY2_2	8768344			2015-07-06	
Covergirl	Plumpify				CovergirlPlumpify			BH
Covergirl	Supersizer	OLV	PG1_CG_125289_TMOLVBROADBANDDIGITALVIDEOTW1849FY1516_US_15_TF1217_MWAA_1	8795680	CovergirlSupersizer		2015-08-07	
Covergirl	Supersizer	iMedia	PG1_CG_125593_MEIMEDIATW1934_US_15_TW1934_EMZF_1 	8799175	CovergirlSupersizer		2015-08-07	
Covergirl	Supersizer	iMedia	pg1_CG_126412_FY1516FINDINGME_US_15_F1217_EMSZE_1	8852288	CovergirlSupersizer		2015-08-07	
Downy	Calvin					2015-07-06		Launches in Sept - 100% TrueView
Gain	Ambrosia	eComm	PG1_GN_124175_TMPECOMecommGainAmbrosiaFY1516_US_15_W2554_GNP_1	8734981	GainAmbrosia		2015-06-29	
Gain	Ambrosia	OLV	pg1_gn_124189_TMPOLVGainAmbrosiaTMPOLVFY1516_US_15_W2554_GNP_1	8759167	GainAmbrosia		2015-06-29	
Gain	Ambrosia	iMedia			GainAmbrosia			Partners and Ios not bought in yet
Gain	Ambrosia	iMedia			GainAmbrosia			Partners and Ios not bought in yet
Gain	Ambrosia	Mobile			GainAmbrosia			Mobile
Gain	Ambrosia	Mobile			GainAmbrosia			Mobile
Gain	Ambrosia	OLV			GainAmbrosia			Partners and Ios not bought in yet
Gain	Ambrosia				GainAmbrosia			Partners and Ios not bought in yet
Gain	AmbrosiaUSH	OLV USH	PG1_GN_124171_UHOLVGainAmbrosiaFY1516_US_15_W2554_GNC5_1	8758750	GainAmbrosia		2015-06-29	
HeadandShoulders	Andros	OLV	PG1_HS_125319_GMOLVHSANDROSOLV_US_15_A2554_HSBJ_1	8810740	HeadShouldersAndros		2015-06-29	
Luvs	McLuvin	OLV	PG1_LU_125210_GMOLVLuvs_US_15_W1834_LU_1	8783524	LuvsMcLuvin		2015-06-29	
Metamucil	MetaBaseHeartHealth	iMedia	pg1_MU_124296_GMGSBMetaBaseSBiMedia_US_15_A2554_MU_2	8795458	MetamucilMetaBase		2015-06-29	
Metamucil	MetaBaseHeartHealth	iMedia	pg1_mu_126174_gmimemetafibergmimediaconsideration_US_15_a2554_mu_2	8834695	MetamucilMetaBase		2015-08-07	
Metamucil	MetaBaseHeartHealth	iMedia	pg1_MU_124294_GMIMEMetaBaseiMedia_US_15_A2554_MU_2		MetamucilMetaBase			
Metamucil	MetaHealthBarYr2	iMedia	pg1_mu_126125_gmimeMetaHealthBarGMiMediaAwareness_US_15_a2554_mua_1	8840558			2015-08-07	
Olay	YogaBody	eComm	pg1_OM_124011_GMECOMOlayBodyFHeCommW2554FY1516FIRM_US_15_W2554_OMK_1	8688587			2015-08-20	
Olay	YogaBody	iMedia	pg1_om_124888_GMIMEOlayBodyFHiMediaW2554FY1516_US_15_W2554_omk_2 	8766958			2015-08-20	
Olay	YogaSkin	OLV	PG1_OO_127079_GMOLVOlaySCCYOGAGMOLV_US_15_W2554_OUU2_2	8898261			2015-09-01	
Olay	YogaSkin	OLV	PG1_OO_126702_GMGSBOlaySCCFYYTOLVSBW2554FY1516_US_15_W2554_OUU2_1	8881856			2015-09-01	
Olay	YogaSkin	eComm	pg1_OO_123898_GMECOMOlaySCCFHeCommSBW2554FY1516FIRM_US_15_W2554_OUU2_1	8691156			2015-09-01	
Olay	YogaSkin	iMedia	PG1_OO_126519_GMIMEOLAYSCCFYYOGAFHIMEDIAW2554FY1516_US_15_W2554_OUU2_2	8852164			2015-09-01	
Pampers	RunwayBabyCenterSB	iMedia	pg1_pm_125248_TMGSBPampCruisGMBCSpecialBuyTW18341516_US_15_TW1834_pmq8_1 	8783148	PampersRunwayCruisers	2015-07-06	2015-06-29	
Pampers	RunwayBabyCenterSB	iMedia	pg1_pm_125215_TMGSBPampSwadGMBCSpecialBuyTW18341516_US_15_TW1834_PMQ6_1	8783315	PampersRunwaySwaddlers	2015-07-06	2015-06-29	
Pampers	RunwayBabyCenterSB	iMedia	pg1_pm_125247_PampMegaGMBCSpecialBuyTW18341516_US_15_TW1834_pmq7_1 	8783550	PampersRunwayBabyDry	2015-07-06	2015-06-29	
Pampers	RunwayBabyCenterSB	iMedia	pg1_pm_125246_TMGSBPampEasyUPGMBCSpecialBuyTW18341516_US_15_TW1834_pm7_1 	8786127	PampersRunwayEasyUp	2015-07-06	2015-06-29	
Secret	Darla	iMedia	PG1_SC_121640_GMMMPSecretDarlaOWN_US_14_W2554_SCP1_1	8532024	SecretDarla		2015-06-29	
Secret	Darla	iMedia	PG1_SC_124802_GMIMESecretDarlaHawkeye_US_15_W2554_SCB2_1	8767250	SecretDarla		2015-06-29	
Secret	Darla	OLV	PG1_SC_124808_GMOLVSecretDarlaOLV_US_15_W2554_SCB2_1	8767271	SecretDarla		2015-06-29	
Secret	Darla	iMedia	PG1_SC_124818_GMGSBSecretDarlaAgile_US_15_W2554_SCB2_1	8768308	SecretDarla		2015-06-29	
Tide	Diamond	iMedia	PG1_TB_124843_GMIMEDiamond+iMedia_US_15_W2554_TBM4_3	8766852	TideDiamond		2015-07-06	
Tide	Diamond	eComm	PG1_TB_124928_GMECOMDiamond+ecomm_US_15_W2554_TBM4_3	8766903	TideDiamond		2015-07-06	
Tide	Diamond	OLV	PG1_TB_124877_GMOLVDiamond+FH1516_US_15_W2554_TBM4_3	8768260	TideDiamond		2015-07-06	
Tide	Diamond	iMedia			TideDiamond		2015-07-06	Not yet bought in - launching later in the year
Tide	Diamond	Mobile	PG1_TB_124163_GMMOBCatalinaD+_US_15_W2554_TBM4_3		TideDiamond		2015-07-06	
Tide	Diamond	Mobile	PG1_TB_124926_UHMOBDiamond+FHUSHMobile_US_15_W2554_TBM4_3		TideDiamond		2015-07-06	
Tide	Diamond	OLV			TideDiamond		2015-07-06	Not yet bought in
Tide	DiamondUSH	OLV USH	PG1_TB_124909_UHOLVDiamond+FHUSH_US_15_W2554_TBM4_3	8767076	TideDiamond		2015-07-06	
Tide	HeMan	OLV	PG1_TB_124937_GMOLVHeManPAH_US_15_W2554_TBM1_3	8766914	TideHeMan		2015-06-29	
Tide	HeMan	iMedia	PG1_TB_124936_GMIMEHeManFHiMediaPAH_US_15_W2554_TBM1_3	8767103	TideHeMan		2015-06-29	
Tide	Jupiler	iMedia	PG1_TB_125842_GMIMETideUSRTargetSequentialiMedia_US_15_W2554_TBBN_3	8821527	TideJupiler		2015-06-29	
Tide	Jupiler	OLV	PG1_TB_126744_GMOLVTideJupilerPAHJASOLV_US_15_W2554_TBBN_3	8866858	TideJupiler		2015-08-10	
Tide	Jupiler	iMedia	PG1_TB_126768_GMIMETideJupilerPAHFHiMediaW25541516_US_15_W2554_TBBN_3	8868814	TideJupiler		2015-08-07	
Tide	Jupiler	Mobile	PG1_TB_124938_GMMOBTIDEJUPILER_US_15_W2554_TBBN_3		TideJupiler			
Tide	Jupiler	Mobile	PG1_TB_124939_UHMOBTIDEJUPILER_US_15_HW2554_TBBN_3		TideJupiler			
Tide	JupilerUSH	OLV USH	PG1_TB_124935_UHOLVTIDEJUPILER_US_15_W2554_TBBN_3	8768290	TideJupiler		2015-06-29	
Tide	Springsteen	iMedia	PG1_TB_124868_GMIMESPRINGSTEEN_US_15_W2554_TBM2_3	8766900	TideSpringsteen		2015-07-06	
Tide	Springsteen	eComm	PG1_TB_124878_ECOMSPRINGSTEEN_US_15_W2554_TBM2_3	8767334	TideSpringsteen		2015-07-06	
Tide	Springsteen	OLV	PG1_TB_124876_GMOLVSPRINGSTEEN_US_15_W2554_TBM2_3	8768277	TideSpringsteen		2015-07-06	
Tide	Springsteen	eComm			TideSpringsteen		2015-07-06	Not yet bought in - launching later in the year
Tide	Springsteen	Mobile	PG1_TB_124164_GMMOBCatSpringsteen_US_15_W2554_TBM2_3		TideSpringsteen		2015-07-06	
Tide	Springsteen	Mobile	PG1_TB_124881_UHMOBSPRINGSTEEN_US_15_W2554_TBM2_3		TideSpringsteen		2015-07-06	
Tide	Springsteen	Mobile			TideSpringsteen		2015-07-06	Not yet bought in
Tide	SpringsteenDiamond	iMedia	PG1_TB_124843_GMIMEDiamond+iMedia_US_15_W2554_TBM4_3	8766852	TideDiamond		2015-06-29	
Tide	SpringsteenDiamond	iMedia	PG1_TB_124868_GMIMESPRINGSTEEN_US_15_W2554_TBM2_3	8766900	TideSpringsteen		2015-06-29	
Tide	SpringsteenDiamond	eComm	PG1_TB_124928_GMECOMDiamond+ecomm_US_15_W2554_TBM4_3	8766903	TideDiamond		2015-06-29	
Tide	SpringsteenDiamond	eComm	PG1_TB_124878_ECOMSPRINGSTEEN_US_15_W2554_TBM2_3	8767334	TideSpringsteen		2015-06-29	
Tide	SpringsteenDiamond	OLV	PG1_TB_124877_GMOLVDiamond+FH1516_US_15_W2554_TBM4_3	8768260	TideDiamond		2015-06-29	
Tide	SpringsteenDiamond	OLV	PG1_TB_124876_GMOLVSPRINGSTEEN_US_15_W2554_TBM2_3	8768277	TideSpringsteen		2015-06-29	
Tide	SpringsteenDiamond	eComm			TideSpringsteen			Not yet bought in - launching later in the year
Tide	SpringsteenDiamond	iMedia			TideDiamond			Not yet bought in - launching later in the year
Tide	SpringsteenDiamond	Mobile	PG1_TB_124164_GMMOBCatSpringsteen_US_15_W2554_TBM2_3		TideSpringsteen			
Tide	SpringsteenDiamond	Mobile	PG1_TB_124881_UHMOBSPRINGSTEEN_US_15_W2554_TBM2_3		TideSpringsteen			
Tide	SpringsteenDiamond	Mobile			TideSpringsteen			Not yet bought in
Tide	SpringsteenDiamond	Mobile	PG1_TB_124163_GMMOBCatalinaD+_US_15_W2554_TBM4_3		TideDiamond			
Tide	SpringsteenDiamond	Mobile	PG1_TB_124926_UHMOBDiamond+FHUSHMobile_US_15_W2554_TBM4_3		TideDiamond			
Tide	SpringsteenDiamond	OLV	PG1_TB_127656_GMOLVTideSpringsteenYouTubeOLV_US_15_W2554_TBM2_3	8953400	TideSpringsteen		2015-09-01	
Tide	Springsteen	OLV	PG1_TB_127656_GMOLVTideSpringsteenYouTubeOLV_US_15_W2554_TBM2_3	8953400	TideSpringsteen		2015-09-01	
Tide	SpringsteenDiamondUSH	OLV USH	PG1_TB_124909_UHOLVDiamond+FHUSH_US_15_W2554_TBM4_3	8767076	TideDiamond		2015-06-29	
Tide	SpringsteenDiamondUSH	OLV USH	PG1_TB_124880_UHOLVSPRINGSTEEN_US_15_W2554_TBM2_3	8767284	TideSpringsteen		2015-06-29	
Tide	SpringsteenUSH	OLV USH	PG1_TB_124880_UHOLVSPRINGSTEEN_US_15_W2554_TBM2_3	8767284	TideSpringsteen		2015-07-06	
Vicks	ZzzQuil	eComm	PG1_NC_124054_GMZzzQuilGMEcommA2554FY1415_US_14_A2554_NC12_1	8701960			2015-06-29	
Vicks	ZzzQuil	iMedia	pg1_nc_124906_GMIMEZzzQuilGMAwareiMedia_US_15_A1849_nc12_1 	8767186			2015-06-29	
Vicks	ZzzQuil	OLV	PG1_NC_125025_TMPOLVZzzQuilTMPOLVTA1854FY1516_US_15_TA1854_NC12_1	8771800			2015-06-29	
Vicks	ZzzQuil	iMedia						
Vicks	ZzzQuil	Mobile						
Vicks	ZzzQuil	Mobile						
Vicks	ZzzQuilUSH	iMedia USH	PG1_NC_125041_UHIMEZzzQuilUSHAwareiMediaHA1849FY1516_US_15_A1849_NC12_1 	8768392			2015-06-29	
